{
  "project_info": {
    "project_number": "439823451303",
    "project_id": "jsonapiparser",
    "storage_bucket": "jsonapiparser.appspot.com"
  },
  "client": [
    {
      "client_info": {
        "mobilesdk_app_id": "1:439823451303:android:af2a333c7a026db8fe8782",
        "android_client_info": {
          "package_name": "rjga.android.examples.jsonapiparser"
        }
      },
      "oauth_client": [],
      "api_key": [
        {
          "current_key": "AIzaSyD2ok5aOrIkio9CCh9ZZiQoEwhzjU5dOpY"
        }
      ],
      "services": {
        "appinvite_service": {
          "other_platform_oauth_client": []
        }
      }
    },
    {
      "client_info": {
        "mobilesdk_app_id": "1:439823451303:android:f8bd42ffb7aa2781fe8782",
        "android_client_info": {
          "package_name": "rjga.android.jsonapiparser"
        }
      },
      "oauth_client": [],
      "api_key": [
        {
          "current_key": "AIzaSyD2ok5aOrIkio9CCh9ZZiQoEwhzjU5dOpY"
        }
      ],
      "services": {
        "appinvite_service": {
          "other_platform_oauth_client": []
        }
      }
    }
  ],
  "configuration_version": "1"
}